Analysis: Machine Learning - OblAmt
…
4. Tuning Using Cross-Validation and the tune_grid() function

#tune the model with previously specified cross-validation and RMSE as target metric
tree_res <- tree_wflow %>%
                tune::tune_grid(resamples = obl_folds,
                                grid = tree_grid,
                                control = control_grid(verbose = TRUE),
                                metrics = yardstick::metric_set(rmse))

#collect metrics
tree_res %>% workflowsets::collect_metrics()

## # A tibble: 125 x 9
##    cost_complexity tree_depth min_n .metric .estimator      mean     n  std_err
##              <dbl>      <int> <int> <chr>   <chr>          <dbl> <int>    <dbl>
##  1    0.0000000001          1     2 rmse    standard   61211924.    25 4305662.
##  2    0.0000000178          1     2 rmse    standard   61211924.    25 4305662.
##  3    0.00000316            1     2 rmse    standard   61211924.    25 4305662.
##  4    0.000562              1     2 rmse    standard   61211924.    25 4305662.
##  5    0.1                   1     2 rmse    standard   61211924.    25 4305662.
##  6    0.0000000001          4     2 rmse    standard   71977776.    25 5612949.
##  7    0.0000000178          4     2 rmse    standard   71977776.    25 5612949.
##  8    0.00000316            4     2 rmse    standard   71977776.    25 5612949.
##  9    0.000562              4     2 rmse    standard   71984030.    25 5612190.
## 10    0.1                   4     2 rmse    standard   75968940.    25 5622122.
## # ... with 115 more rows, and 1 more variable: .config <chr>
…
#collect metrics
BT_res %>% workflowsets::collect_metrics()

## # A tibble: 125 x 9
##    cost_complexity tree_depth min_n .metric .estimator      mean     n  std_err
##              <dbl>      <int> <int> <chr>   <chr>          <dbl> <int>    <dbl>
##  1    0.0000000001          1     2 rmse    standard   52766592.    10 5280706.
##  2    0.0000000178          1     2 rmse    standard   55544327.    10 5045704.
##  3    0.00000316            1     2 rmse    standard   55455790.    10 4906816.
##  4    0.000562              1     2 rmse    standard   53223388.    10 4962489.
##  5    0.1                   1     2 rmse    standard   54353007.    10 5072593.
##  6    0.0000000001          4     2 rmse    standard   55858237.    10 3862166.
##  7    0.0000000178          4     2 rmse    standard   58416411.    10 2999470.
##  8    0.00000316            4     2 rmse    standard   55110825.    10 5386847.
##  9    0.000562              4     2 rmse    standard   54832138.    10 3986540.
## 10    0.1                   4     2 rmse    standard   55254628.    10 4649400.
## # ... with 115 more rows, and 1 more variable: .config <chr>
…
