Analysis: Machine Learning - OblAmt - Outliers
…
4. Tuning Using Cross-Validation and the tune_grid() function

#tune the model with previously specified cross-validation and RMSE as target metric
tree_res <- tree_wflow %>%
                tune::tune_grid(resamples = obl_folds_spatial,
                                grid = tree_grid,
                                control = control_grid(verbose = TRUE),
                                metrics = yardstick::metric_set(rmse))

#collect metrics
tree_res %>% workflowsets::collect_metrics()

## # A tibble: 125 x 9
##    cost_complexity tree_depth min_n .metric .estimator  mean     n std_err
##              <dbl>      <int> <int> <chr>   <chr>      <dbl> <int>   <dbl>
##  1    0.0000000001          1     2 rmse    standard    2.74     5   0.210
##  2    0.0000000178          1     2 rmse    standard    2.74     5   0.210
##  3    0.00000316            1     2 rmse    standard    2.74     5   0.210
##  4    0.000562              1     2 rmse    standard    2.74     5   0.210
##  5    0.1                   1     2 rmse    standard    2.74     5   0.210
##  6    0.0000000001          4     2 rmse    standard    2.58     5   0.162
##  7    0.0000000178          4     2 rmse    standard    2.58     5   0.162
##  8    0.00000316            4     2 rmse    standard    2.58     5   0.162
##  9    0.000562              4     2 rmse    standard    2.57     5   0.157
## 10    0.1                   4     2 rmse    standard    2.78     5   0.224
## # ... with 115 more rows, and 1 more variable: .config <chr>
…
